r(r(nil,[a,1],nil), "+", r(nil, [b,2], nil)).
r(r(nil,[a,1],nil), "*", r(nil,nil,nil)).
r(r(r(nil, [a,1], nil), ".", r(r(r(r(nil, [b,2], nil), ".", r(nil, [c,3], nil)), "*", r(nil, nil, nil)), ".", r(nil, [a,4], nil))), "+", r(r(nil, [c,5], nil), ".", r(nil, [d,6], nil))).
